{
	"credit": "Made with Blockbench",
	"texture_size": [128, 128],
	"textures": {
		"11": "ava:item/gun_effects/fire_green",
		"12": "ava:item/gun_effects/fire2_green"
	},
	"elements": [
		{
			"name": "cube2",
			"from": [7.75, 7.55, -2.0002],
			"to": [8.25, 8.05, -0.0002],
			"rotation": {"angle": 0, "axis": "y", "origin": [15, 15, 6]},
			"faces": {
				"north": {"uv": [0, 0, 16, 16], "texture": "#12"},
				"east": {"uv": [0, 0, 16, 16], "texture": "#12"},
				"south": {"uv": [0, 0, 16, 16], "texture": "#12"},
				"west": {"uv": [0, 0, 16, 16], "texture": "#12"},
				"up": {"uv": [0, 0, 16, 16], "texture": "#12"},
				"down": {"uv": [0, 0, 16, 16], "texture": "#12"}
			}
		},
		{
			"from": [7.25, 7.0725, -0.001],
			"to": [8.75, 8.5725, 0],
			"rotation": {"angle": 0, "axis": "y", "origin": [15, 15, 8]},
			"faces": {
				"north": {"uv": [0, 0, 16, 16], "texture": "#11"},
				"east": {"uv": [0, 0, 16, 16], "texture": "#11"},
				"south": {"uv": [0, 0, 16, 16], "texture": "#11"},
				"west": {"uv": [0, 0, 16, 16], "texture": "#11"},
				"up": {"uv": [0, 0, 16, 16], "texture": "#11"},
				"down": {"uv": [0, 0, 16, 16], "texture": "#11"}
			}
		}
	],
	"display": {
		"thirdperson_righthand": {
			"rotation": [70, 0, 0],
			"translation": [-2.5, 5.75, 4.5],
			"scale": [2.3, 2.3, 1.95]
		},
		"thirdperson_lefthand": {
			"rotation": [70, 0, 0],
			"translation": [-2.5, 5.75, 4.5],
			"scale": [2, 2, 2]
		},
		"firstperson_righthand": {
			"rotation": [3, 2, 0],
			"translation": [0.25, 1, -5],
			"scale": [4, 4, 2]
		},
		"firstperson_lefthand": {
			"rotation": [0, 2, 0],
			"translation": [0.25, 1, -6.25],
			"scale": [4, 4, 2]
		},
		"ground": {
			"rotation": [0, 0, 90],
			"translation": [0, -3.5, 0]
		},
		"gui": {
			"rotation": [0, -90, 0],
			"translation": [0.25, 0.25, 0]
		},
		"head": {
			"rotation": [8, 3, 0],
			"translation": [0.25, 13, -2.5],
			"scale": [2, 2, 2]
		},
		"fixed": {
			"rotation": [0, 90, 0],
			"translation": [-2.25, 2.75, -1.5],
			"scale": [3, 3, 3]
		}
	}
}