{
	"credit": "Made with Blockbench",
	"textures": {
		"0": "ava:item/gun_textures/palette_desert",
		"particle": "ava:item/gun_textures/palette_desert"
	},
	"elements": [
		{
			"from": [7.5, 2.5, 8.725],
			"to": [8.5, 7, 11.575],
			"rotation": {"angle": 0, "axis": "z", "origin": [8, 2.35, 10.725]},
			"faces": {
				"north": {"uv": [0, 0, 2, 2], "texture": "#0"},
				"east": {"uv": [0, 0, 2, 2], "texture": "#0"},
				"south": {"uv": [0, 0, 2, 2], "texture": "#0"},
				"west": {"uv": [0, 0, 2, 2], "texture": "#0"},
				"up": {"uv": [0, 0, 2, 2], "texture": "#0"},
				"down": {"uv": [0, 0, 2, 2], "texture": "#0"}
			}
		}
	],
	"groups": [
		{
			"name": "mag",
			"origin": [8, 3.125, 12.275],
			"children": [0]
		}
	]
}