{
	"credit": "Made with Blockbench",
	"textures": {
		"0": "ava:item/gun_textures/palette_frost",
		"particle": "ava:item/gun_textures/palette_frost"
	},
	"elements": [
		{
			"name": "XM8 mag_0",
			"from": [7.5, 1.10124, 7.38632],
			"to": [8.5, 5.63244, 7.57832],
			"rotation": {"angle": 0, "axis": "y", "origin": [7.52393, 2.358, 8.31735]},
			"faces": {
				"north": {"uv": [2, 0, 3, 1], "texture": "#0"},
				"east": {"uv": [2, 0, 3, 1], "texture": "#0"},
				"south": {"uv": [2, 0, 3, 1], "texture": "#0"},
				"west": {"uv": [2, 0, 3, 1], "texture": "#0"},
				"up": {"uv": [2, 0, 3, 1], "texture": "#0"},
				"down": {"uv": [2, 0, 3, 1], "texture": "#0"}
			}
		},
		{
			"name": "XM8 mag_1",
			"from": [7.5, 1.02444, 7.57832],
			"to": [8.5, 5.59404, 7.77032],
			"rotation": {"angle": 0, "axis": "y", "origin": [7.52393, 2.358, 8.31735]},
			"faces": {
				"north": {"uv": [2, 0, 3, 1], "texture": "#0"},
				"east": {"uv": [2, 0, 3, 1], "texture": "#0"},
				"south": {"uv": [2, 0, 3, 1], "texture": "#0"},
				"west": {"uv": [2, 0, 3, 1], "texture": "#0"},
				"up": {"uv": [2, 0, 3, 1], "texture": "#0"},
				"down": {"uv": [2, 0, 3, 1], "texture": "#0"}
			}
		},
		{
			"name": "XM8 mag_2",
			"from": [7.5, 0.94764, 7.77032],
			"to": [8.5, 5.55564, 8.07752],
			"rotation": {"angle": 0, "axis": "y", "origin": [7.52393, 2.358, 8.31735]},
			"faces": {
				"north": {"uv": [2, 0, 3, 1], "texture": "#0"},
				"east": {"uv": [2, 0, 3, 1], "texture": "#0"},
				"south": {"uv": [2, 0, 3, 1], "texture": "#0"},
				"west": {"uv": [2, 0, 3, 1], "texture": "#0"},
				"up": {"uv": [2, 0, 3, 1], "texture": "#0"},
				"down": {"uv": [2, 0, 3, 1], "texture": "#0"}
			}
		},
		{
			"name": "XM8 mag_3",
			"from": [7.5, 0.87084, 8.07752],
			"to": [8.5, 5.51724, 8.26952],
			"rotation": {"angle": 0, "axis": "y", "origin": [7.52393, 2.358, 8.31735]},
			"faces": {
				"north": {"uv": [2, 0, 3, 1], "texture": "#0"},
				"east": {"uv": [2, 0, 3, 1], "texture": "#0"},
				"south": {"uv": [2, 0, 3, 1], "texture": "#0"},
				"west": {"uv": [2, 0, 3, 1], "texture": "#0"},
				"up": {"uv": [2, 0, 3, 1], "texture": "#0"},
				"down": {"uv": [2, 0, 3, 1], "texture": "#0"}
			}
		},
		{
			"name": "XM8 mag_4",
			"from": [7.5, 0.79404, 8.26952],
			"to": [8.5, 5.47884, 8.42312],
			"rotation": {"angle": 0, "axis": "y", "origin": [7.52393, 2.358, 8.31735]},
			"faces": {
				"north": {"uv": [2, 0, 3, 1], "texture": "#0"},
				"east": {"uv": [2, 0, 3, 1], "texture": "#0"},
				"south": {"uv": [2, 0, 3, 1], "texture": "#0"},
				"west": {"uv": [2, 0, 3, 1], "texture": "#0"},
				"up": {"uv": [2, 0, 3, 1], "texture": "#0"},
				"down": {"uv": [2, 0, 3, 1], "texture": "#0"}
			}
		},
		{
			"name": "XM8 mag_5",
			"from": [7.5, 0.75564, 8.42312],
			"to": [8.5, 5.44044, 8.73032],
			"rotation": {"angle": 0, "axis": "y", "origin": [7.52393, 2.358, 8.31735]},
			"faces": {
				"north": {"uv": [2, 0, 3, 1], "texture": "#0"},
				"east": {"uv": [2, 0, 3, 1], "texture": "#0"},
				"south": {"uv": [2, 0, 3, 1], "texture": "#0"},
				"west": {"uv": [2, 0, 3, 1], "texture": "#0"},
				"up": {"uv": [2, 0, 3, 1], "texture": "#0"},
				"down": {"uv": [2, 0, 3, 1], "texture": "#0"}
			}
		},
		{
			"name": "XM8 mag_6",
			"from": [7.5, 0.71724, 8.73032],
			"to": [8.5, 5.40204, 9.15272],
			"rotation": {"angle": 0, "axis": "y", "origin": [7.52393, 2.358, 8.31735]},
			"faces": {
				"north": {"uv": [2, 0, 3, 1], "texture": "#0"},
				"east": {"uv": [2, 0, 3, 1], "texture": "#0"},
				"south": {"uv": [2, 0, 3, 1], "texture": "#0"},
				"west": {"uv": [2, 0, 3, 1], "texture": "#0"},
				"up": {"uv": [2, 0, 3, 1], "texture": "#0"},
				"down": {"uv": [2, 0, 3, 1], "texture": "#0"}
			}
		},
		{
			"name": "XM8 mag_7",
			"from": [7.5, 1.67724, 9.15272],
			"to": [8.5, 5.36364, 9.30632],
			"rotation": {"angle": 0, "axis": "y", "origin": [7.52393, 2.358, 8.31735]},
			"faces": {
				"north": {"uv": [2, 0, 3, 1], "texture": "#0"},
				"east": {"uv": [2, 0, 3, 1], "texture": "#0"},
				"south": {"uv": [2, 0, 3, 1], "texture": "#0"},
				"west": {"uv": [2, 0, 3, 1], "texture": "#0"},
				"up": {"uv": [2, 0, 3, 1], "texture": "#0"},
				"down": {"uv": [2, 0, 3, 1], "texture": "#0"}
			}
		},
		{
			"name": "XM8 mag_8",
			"from": [7.5, 3.02124, 9.30632],
			"to": [8.5, 5.32524, 9.65192],
			"rotation": {"angle": 0, "axis": "y", "origin": [7.52393, 2.358, 8.31735]},
			"faces": {
				"north": {"uv": [2, 0, 3, 1], "texture": "#0"},
				"east": {"uv": [2, 0, 3, 1], "texture": "#0"},
				"south": {"uv": [2, 0, 3, 1], "texture": "#0"},
				"west": {"uv": [2, 0, 3, 1], "texture": "#0"},
				"up": {"uv": [2, 0, 3, 1], "texture": "#0"},
				"down": {"uv": [2, 0, 3, 1], "texture": "#0"}
			}
		},
		{
			"name": "XM8 mag_9",
			"from": [7.5, 3.48204, 9.65192],
			"to": [8.5, 5.28684, 9.76712],
			"rotation": {"angle": 0, "axis": "y", "origin": [7.52393, 2.358, 8.31735]},
			"faces": {
				"north": {"uv": [2, 0, 3, 1], "texture": "#0"},
				"east": {"uv": [2, 0, 3, 1], "texture": "#0"},
				"south": {"uv": [2, 0, 3, 1], "texture": "#0"},
				"west": {"uv": [2, 0, 3, 1], "texture": "#0"},
				"up": {"uv": [2, 0, 3, 1], "texture": "#0"},
				"down": {"uv": [2, 0, 3, 1], "texture": "#0"}
			}
		},
		{
			"name": "XM8 mag_10",
			"from": [7.5, 4.44204, 9.76712],
			"to": [8.5, 5.24844, 9.92072],
			"rotation": {"angle": 0, "axis": "y", "origin": [7.52393, 2.358, 8.31735]},
			"faces": {
				"north": {"uv": [2, 0, 3, 1], "texture": "#0"},
				"east": {"uv": [2, 0, 3, 1], "texture": "#0"},
				"south": {"uv": [2, 0, 3, 1], "texture": "#0"},
				"west": {"uv": [2, 0, 3, 1], "texture": "#0"},
				"up": {"uv": [2, 0, 3, 1], "texture": "#0"},
				"down": {"uv": [2, 0, 3, 1], "texture": "#0"}
			}
		},
		{
			"name": "XM8 mag_11",
			"from": [7.5, 5.13324, 9.92072],
			"to": [8.5, 5.24844, 9.95912],
			"rotation": {"angle": 0, "axis": "y", "origin": [7.52393, 2.358, 8.31735]},
			"faces": {
				"north": {"uv": [2, 0, 3, 1], "texture": "#0"},
				"east": {"uv": [2, 0, 3, 1], "texture": "#0"},
				"south": {"uv": [2, 0, 3, 1], "texture": "#0"},
				"west": {"uv": [2, 0, 3, 1], "texture": "#0"},
				"up": {"uv": [2, 0, 3, 1], "texture": "#0"},
				"down": {"uv": [2, 0, 3, 1], "texture": "#0"}
			}
		},
		{
			"name": "XM8 mag_12",
			"from": [7.5, 1.10124, 7.34792],
			"to": [8.5, 5.13324, 7.38632],
			"rotation": {"angle": 0, "axis": "y", "origin": [7.52393, 2.358, 8.31735]},
			"faces": {
				"north": {"uv": [2, 0, 3, 1], "texture": "#0"},
				"east": {"uv": [2, 0, 3, 1], "texture": "#0"},
				"south": {"uv": [2, 0, 3, 1], "texture": "#0"},
				"west": {"uv": [2, 0, 3, 1], "texture": "#0"},
				"up": {"uv": [2, 0, 3, 1], "texture": "#0"},
				"down": {"uv": [2, 0, 3, 1], "texture": "#0"}
			}
		},
		{
			"name": "XM8 mag_13",
			"from": [7.5, 1.10124, 7.30952],
			"to": [8.5, 4.82604, 7.34792],
			"rotation": {"angle": 0, "axis": "y", "origin": [7.52393, 2.358, 8.31735]},
			"faces": {
				"north": {"uv": [2, 0, 3, 1], "texture": "#0"},
				"east": {"uv": [2, 0, 3, 1], "texture": "#0"},
				"south": {"uv": [2, 0, 3, 1], "texture": "#0"},
				"west": {"uv": [2, 0, 3, 1], "texture": "#0"},
				"up": {"uv": [2, 0, 3, 1], "texture": "#0"},
				"down": {"uv": [2, 0, 3, 1], "texture": "#0"}
			}
		},
		{
			"name": "XM8 mag_14",
			"from": [7.5, 1.10124, 7.27112],
			"to": [8.5, 4.55724, 7.30952],
			"rotation": {"angle": 0, "axis": "y", "origin": [7.52393, 2.358, 8.31735]},
			"faces": {
				"north": {"uv": [2, 0, 3, 1], "texture": "#0"},
				"east": {"uv": [2, 0, 3, 1], "texture": "#0"},
				"south": {"uv": [2, 0, 3, 1], "texture": "#0"},
				"west": {"uv": [2, 0, 3, 1], "texture": "#0"},
				"up": {"uv": [2, 0, 3, 1], "texture": "#0"},
				"down": {"uv": [2, 0, 3, 1], "texture": "#0"}
			}
		},
		{
			"name": "XM8 mag_15",
			"from": [7.5, 4.05804, 9.76712],
			"to": [8.5, 4.44204, 9.88232],
			"rotation": {"angle": 0, "axis": "y", "origin": [7.52393, 2.358, 8.31735]},
			"faces": {
				"north": {"uv": [2, 0, 3, 1], "texture": "#0"},
				"east": {"uv": [2, 0, 3, 1], "texture": "#0"},
				"south": {"uv": [2, 0, 3, 1], "texture": "#0"},
				"west": {"uv": [2, 0, 3, 1], "texture": "#0"},
				"up": {"uv": [2, 0, 3, 1], "texture": "#0"},
				"down": {"uv": [2, 0, 3, 1], "texture": "#0"}
			}
		},
		{
			"name": "XM8 mag_16",
			"from": [7.5, 1.10124, 7.23272],
			"to": [8.5, 4.13484, 7.27112],
			"rotation": {"angle": 0, "axis": "y", "origin": [7.52393, 2.358, 8.31735]},
			"faces": {
				"north": {"uv": [2, 0, 3, 1], "texture": "#0"},
				"east": {"uv": [2, 0, 3, 1], "texture": "#0"},
				"south": {"uv": [2, 0, 3, 1], "texture": "#0"},
				"west": {"uv": [2, 0, 3, 1], "texture": "#0"},
				"up": {"uv": [2, 0, 3, 1], "texture": "#0"},
				"down": {"uv": [2, 0, 3, 1], "texture": "#0"}
			}
		},
		{
			"name": "XM8 mag_17",
			"from": [7.5, 3.94284, 9.76712],
			"to": [8.5, 4.05804, 9.84392],
			"rotation": {"angle": 0, "axis": "y", "origin": [7.52393, 2.358, 8.31735]},
			"faces": {
				"north": {"uv": [2, 0, 3, 1], "texture": "#0"},
				"east": {"uv": [2, 0, 3, 1], "texture": "#0"},
				"south": {"uv": [2, 0, 3, 1], "texture": "#0"},
				"west": {"uv": [2, 0, 3, 1], "texture": "#0"},
				"up": {"uv": [2, 0, 3, 1], "texture": "#0"},
				"down": {"uv": [2, 0, 3, 1], "texture": "#0"}
			}
		},
		{
			"name": "XM8 mag_18",
			"from": [7.5, 3.55884, 9.76712],
			"to": [8.5, 3.94284, 9.80552],
			"rotation": {"angle": 0, "axis": "y", "origin": [7.52393, 2.358, 8.31735]},
			"faces": {
				"north": {"uv": [2, 0, 3, 1], "texture": "#0"},
				"east": {"uv": [2, 0, 3, 1], "texture": "#0"},
				"south": {"uv": [2, 0, 3, 1], "texture": "#0"},
				"west": {"uv": [2, 0, 3, 1], "texture": "#0"},
				"up": {"uv": [2, 0, 3, 1], "texture": "#0"},
				"down": {"uv": [2, 0, 3, 1], "texture": "#0"}
			}
		},
		{
			"name": "XM8 mag_19",
			"from": [7.5, 1.13964, 7.19432],
			"to": [8.5, 3.71244, 7.23272],
			"rotation": {"angle": 0, "axis": "y", "origin": [7.52393, 2.358, 8.31735]},
			"faces": {
				"north": {"uv": [2, 0, 3, 1], "texture": "#0"},
				"east": {"uv": [2, 0, 3, 1], "texture": "#0"},
				"south": {"uv": [2, 0, 3, 1], "texture": "#0"},
				"west": {"uv": [2, 0, 3, 1], "texture": "#0"},
				"up": {"uv": [2, 0, 3, 1], "texture": "#0"},
				"down": {"uv": [2, 0, 3, 1], "texture": "#0"}
			}
		},
		{
			"name": "XM8 mag_20",
			"from": [7.5, 3.32844, 9.65192],
			"to": [8.5, 3.48204, 9.72872],
			"rotation": {"angle": 0, "axis": "y", "origin": [7.52393, 2.358, 8.31735]},
			"faces": {
				"north": {"uv": [2, 0, 3, 1], "texture": "#0"},
				"east": {"uv": [2, 0, 3, 1], "texture": "#0"},
				"south": {"uv": [2, 0, 3, 1], "texture": "#0"},
				"west": {"uv": [2, 0, 3, 1], "texture": "#0"},
				"up": {"uv": [2, 0, 3, 1], "texture": "#0"},
				"down": {"uv": [2, 0, 3, 1], "texture": "#0"}
			}
		},
		{
			"name": "XM8 mag_21",
			"from": [7.5, 1.13964, 7.15592],
			"to": [8.5, 3.44364, 7.19432],
			"rotation": {"angle": 0, "axis": "y", "origin": [7.52393, 2.358, 8.31735]},
			"faces": {
				"north": {"uv": [2, 0, 3, 1], "texture": "#0"},
				"east": {"uv": [2, 0, 3, 1], "texture": "#0"},
				"south": {"uv": [2, 0, 3, 1], "texture": "#0"},
				"west": {"uv": [2, 0, 3, 1], "texture": "#0"},
				"up": {"uv": [2, 0, 3, 1], "texture": "#0"},
				"down": {"uv": [2, 0, 3, 1], "texture": "#0"}
			}
		},
		{
			"name": "XM8 mag_22",
			"from": [7.5, 3.13644, 9.65192],
			"to": [8.5, 3.32844, 9.69032],
			"rotation": {"angle": 0, "axis": "y", "origin": [7.52393, 2.358, 8.31735]},
			"faces": {
				"north": {"uv": [2, 0, 3, 1], "texture": "#0"},
				"east": {"uv": [2, 0, 3, 1], "texture": "#0"},
				"south": {"uv": [2, 0, 3, 1], "texture": "#0"},
				"west": {"uv": [2, 0, 3, 1], "texture": "#0"},
				"up": {"uv": [2, 0, 3, 1], "texture": "#0"},
				"down": {"uv": [2, 0, 3, 1], "texture": "#0"}
			}
		},
		{
			"name": "XM8 mag_23",
			"from": [7.5, 1.17804, 7.11752],
			"to": [8.5, 3.21324, 7.15592],
			"rotation": {"angle": 0, "axis": "y", "origin": [7.52393, 2.358, 8.31735]},
			"faces": {
				"north": {"uv": [2, 0, 3, 1], "texture": "#0"},
				"east": {"uv": [2, 0, 3, 1], "texture": "#0"},
				"south": {"uv": [2, 0, 3, 1], "texture": "#0"},
				"west": {"uv": [2, 0, 3, 1], "texture": "#0"},
				"up": {"uv": [2, 0, 3, 1], "texture": "#0"},
				"down": {"uv": [2, 0, 3, 1], "texture": "#0"}
			}
		},
		{
			"name": "XM8 mag_24",
			"from": [7.5, 1.17804, 7.07912],
			"to": [8.5, 3.02124, 7.11752],
			"rotation": {"angle": 0, "axis": "y", "origin": [7.52393, 2.358, 8.31735]},
			"faces": {
				"north": {"uv": [2, 0, 3, 1], "texture": "#0"},
				"east": {"uv": [2, 0, 3, 1], "texture": "#0"},
				"south": {"uv": [2, 0, 3, 1], "texture": "#0"},
				"west": {"uv": [2, 0, 3, 1], "texture": "#0"},
				"up": {"uv": [2, 0, 3, 1], "texture": "#0"},
				"down": {"uv": [2, 0, 3, 1], "texture": "#0"}
			}
		},
		{
			"name": "XM8 mag_25",
			"from": [7.5, 2.75244, 9.30632],
			"to": [8.5, 3.02124, 9.61352],
			"rotation": {"angle": 0, "axis": "y", "origin": [7.52393, 2.358, 8.31735]},
			"faces": {
				"north": {"uv": [2, 0, 3, 1], "texture": "#0"},
				"east": {"uv": [2, 0, 3, 1], "texture": "#0"},
				"south": {"uv": [2, 0, 3, 1], "texture": "#0"},
				"west": {"uv": [2, 0, 3, 1], "texture": "#0"},
				"up": {"uv": [2, 0, 3, 1], "texture": "#0"},
				"down": {"uv": [2, 0, 3, 1], "texture": "#0"}
			}
		},
		{
			"name": "XM8 mag_26",
			"from": [7.5, 1.21644, 7.04072],
			"to": [8.5, 2.94444, 7.07912],
			"rotation": {"angle": 0, "axis": "y", "origin": [7.52393, 2.358, 8.31735]},
			"faces": {
				"north": {"uv": [2, 0, 3, 1], "texture": "#0"},
				"east": {"uv": [2, 0, 3, 1], "texture": "#0"},
				"south": {"uv": [2, 0, 3, 1], "texture": "#0"},
				"west": {"uv": [2, 0, 3, 1], "texture": "#0"},
				"up": {"uv": [2, 0, 3, 1], "texture": "#0"},
				"down": {"uv": [2, 0, 3, 1], "texture": "#0"}
			}
		},
		{
			"name": "XM8 mag_27",
			"from": [7.5, 1.21644, 7.00232],
			"to": [8.5, 2.86764, 7.04072],
			"rotation": {"angle": 0, "axis": "y", "origin": [7.52393, 2.358, 8.31735]},
			"faces": {
				"north": {"uv": [2, 0, 3, 1], "texture": "#0"},
				"east": {"uv": [2, 0, 3, 1], "texture": "#0"},
				"south": {"uv": [2, 0, 3, 1], "texture": "#0"},
				"west": {"uv": [2, 0, 3, 1], "texture": "#0"},
				"up": {"uv": [2, 0, 3, 1], "texture": "#0"},
				"down": {"uv": [2, 0, 3, 1], "texture": "#0"}
			}
		},
		{
			"name": "XM8 mag_28",
			"from": [7.5, 1.21644, 6.96392],
			"to": [8.5, 2.75244, 7.00232],
			"rotation": {"angle": 0, "axis": "y", "origin": [7.52393, 2.358, 8.31735]},
			"faces": {
				"north": {"uv": [2, 0, 3, 1], "texture": "#0"},
				"east": {"uv": [2, 0, 3, 1], "texture": "#0"},
				"south": {"uv": [2, 0, 3, 1], "texture": "#0"},
				"west": {"uv": [2, 0, 3, 1], "texture": "#0"},
				"up": {"uv": [2, 0, 3, 1], "texture": "#0"},
				"down": {"uv": [2, 0, 3, 1], "texture": "#0"}
			}
		},
		{
			"name": "XM8 mag_29",
			"from": [7.5, 2.52204, 9.30632],
			"to": [8.5, 2.75244, 9.53672],
			"rotation": {"angle": 0, "axis": "y", "origin": [7.52393, 2.358, 8.31735]},
			"faces": {
				"north": {"uv": [2, 0, 3, 1], "texture": "#0"},
				"east": {"uv": [2, 0, 3, 1], "texture": "#0"},
				"south": {"uv": [2, 0, 3, 1], "texture": "#0"},
				"west": {"uv": [2, 0, 3, 1], "texture": "#0"},
				"up": {"uv": [2, 0, 3, 1], "texture": "#0"},
				"down": {"uv": [2, 0, 3, 1], "texture": "#0"}
			}
		},
		{
			"name": "XM8 mag_30",
			"from": [7.5, 2.63724, 9.53672],
			"to": [8.5, 2.75244, 9.57512],
			"rotation": {"angle": 0, "axis": "y", "origin": [7.52393, 2.358, 8.31735]},
			"faces": {
				"north": {"uv": [2, 0, 3, 1], "texture": "#0"},
				"east": {"uv": [2, 0, 3, 1], "texture": "#0"},
				"south": {"uv": [2, 0, 3, 1], "texture": "#0"},
				"west": {"uv": [2, 0, 3, 1], "texture": "#0"},
				"up": {"uv": [2, 0, 3, 1], "texture": "#0"},
				"down": {"uv": [2, 0, 3, 1], "texture": "#0"}
			}
		},
		{
			"name": "XM8 mag_31",
			"from": [7.5, 1.25484, 6.92552],
			"to": [8.5, 2.63724, 6.96392],
			"rotation": {"angle": 0, "axis": "y", "origin": [7.52393, 2.358, 8.31735]},
			"faces": {
				"north": {"uv": [2, 0, 3, 1], "texture": "#0"},
				"east": {"uv": [2, 0, 3, 1], "texture": "#0"},
				"south": {"uv": [2, 0, 3, 1], "texture": "#0"},
				"west": {"uv": [2, 0, 3, 1], "texture": "#0"},
				"up": {"uv": [2, 0, 3, 1], "texture": "#0"},
				"down": {"uv": [2, 0, 3, 1], "texture": "#0"}
			}
		},
		{
			"name": "XM8 mag_32",
			"from": [7.5, 2.33004, 9.30632],
			"to": [8.5, 2.52204, 9.49832],
			"rotation": {"angle": 0, "axis": "y", "origin": [7.52393, 2.358, 8.31735]},
			"faces": {
				"north": {"uv": [2, 0, 3, 1], "texture": "#0"},
				"east": {"uv": [2, 0, 3, 1], "texture": "#0"},
				"south": {"uv": [2, 0, 3, 1], "texture": "#0"},
				"west": {"uv": [2, 0, 3, 1], "texture": "#0"},
				"up": {"uv": [2, 0, 3, 1], "texture": "#0"},
				"down": {"uv": [2, 0, 3, 1], "texture": "#0"}
			}
		},
		{
			"name": "XM8 mag_33",
			"from": [7.5, 1.25484, 6.88712],
			"to": [8.5, 2.48364, 6.92552],
			"rotation": {"angle": 0, "axis": "y", "origin": [7.52393, 2.358, 8.31735]},
			"faces": {
				"north": {"uv": [2, 0, 3, 1], "texture": "#0"},
				"east": {"uv": [2, 0, 3, 1], "texture": "#0"},
				"south": {"uv": [2, 0, 3, 1], "texture": "#0"},
				"west": {"uv": [2, 0, 3, 1], "texture": "#0"},
				"up": {"uv": [2, 0, 3, 1], "texture": "#0"},
				"down": {"uv": [2, 0, 3, 1], "texture": "#0"}
			}
		},
		{
			"name": "XM8 mag_34",
			"from": [7.5, 1.29324, 6.84872],
			"to": [8.5, 2.36844, 6.88712],
			"rotation": {"angle": 0, "axis": "y", "origin": [7.52393, 2.358, 8.31735]},
			"faces": {
				"north": {"uv": [2, 0, 3, 1], "texture": "#0"},
				"east": {"uv": [2, 0, 3, 1], "texture": "#0"},
				"south": {"uv": [2, 0, 3, 1], "texture": "#0"},
				"west": {"uv": [2, 0, 3, 1], "texture": "#0"},
				"up": {"uv": [2, 0, 3, 1], "texture": "#0"},
				"down": {"uv": [2, 0, 3, 1], "texture": "#0"}
			}
		},
		{
			"name": "XM8 mag_35",
			"from": [7.5, 2.21484, 9.30632],
			"to": [8.5, 2.33004, 9.45992],
			"rotation": {"angle": 0, "axis": "y", "origin": [7.52393, 2.358, 8.31735]},
			"faces": {
				"north": {"uv": [2, 0, 3, 1], "texture": "#0"},
				"east": {"uv": [2, 0, 3, 1], "texture": "#0"},
				"south": {"uv": [2, 0, 3, 1], "texture": "#0"},
				"west": {"uv": [2, 0, 3, 1], "texture": "#0"},
				"up": {"uv": [2, 0, 3, 1], "texture": "#0"},
				"down": {"uv": [2, 0, 3, 1], "texture": "#0"}
			}
		},
		{
			"name": "XM8 mag_36",
			"from": [7.5, 1.29324, 6.81032],
			"to": [8.5, 2.21484, 6.84872],
			"rotation": {"angle": 0, "axis": "y", "origin": [7.52393, 2.358, 8.31735]},
			"faces": {
				"north": {"uv": [2, 0, 3, 1], "texture": "#0"},
				"east": {"uv": [2, 0, 3, 1], "texture": "#0"},
				"south": {"uv": [2, 0, 3, 1], "texture": "#0"},
				"west": {"uv": [2, 0, 3, 1], "texture": "#0"},
				"up": {"uv": [2, 0, 3, 1], "texture": "#0"},
				"down": {"uv": [2, 0, 3, 1], "texture": "#0"}
			}
		},
		{
			"name": "XM8 mag_37",
			"from": [7.5, 2.13804, 9.30632],
			"to": [8.5, 2.21484, 9.42152],
			"rotation": {"angle": 0, "axis": "y", "origin": [7.52393, 2.358, 8.31735]},
			"faces": {
				"north": {"uv": [2, 0, 3, 1], "texture": "#0"},
				"east": {"uv": [2, 0, 3, 1], "texture": "#0"},
				"south": {"uv": [2, 0, 3, 1], "texture": "#0"},
				"west": {"uv": [2, 0, 3, 1], "texture": "#0"},
				"up": {"uv": [2, 0, 3, 1], "texture": "#0"},
				"down": {"uv": [2, 0, 3, 1], "texture": "#0"}
			}
		},
		{
			"name": "XM8 mag_38",
			"from": [7.5, 1.98444, 9.30632],
			"to": [8.5, 2.13804, 9.38312],
			"rotation": {"angle": 0, "axis": "y", "origin": [7.52393, 2.358, 8.31735]},
			"faces": {
				"north": {"uv": [2, 0, 3, 1], "texture": "#0"},
				"east": {"uv": [2, 0, 3, 1], "texture": "#0"},
				"south": {"uv": [2, 0, 3, 1], "texture": "#0"},
				"west": {"uv": [2, 0, 3, 1], "texture": "#0"},
				"up": {"uv": [2, 0, 3, 1], "texture": "#0"},
				"down": {"uv": [2, 0, 3, 1], "texture": "#0"}
			}
		},
		{
			"name": "XM8 mag_39",
			"from": [7.5, 1.86924, 9.30632],
			"to": [8.5, 1.98444, 9.34472],
			"rotation": {"angle": 0, "axis": "y", "origin": [7.52393, 2.358, 8.31735]},
			"faces": {
				"north": {"uv": [2, 0, 3, 1], "texture": "#0"},
				"east": {"uv": [2, 0, 3, 1], "texture": "#0"},
				"south": {"uv": [2, 0, 3, 1], "texture": "#0"},
				"west": {"uv": [2, 0, 3, 1], "texture": "#0"},
				"up": {"uv": [2, 0, 3, 1], "texture": "#0"},
				"down": {"uv": [2, 0, 3, 1], "texture": "#0"}
			}
		},
		{
			"name": "XM8 mag_40",
			"from": [7.5, 1.29324, 6.77192],
			"to": [8.5, 1.90764, 6.81032],
			"rotation": {"angle": 0, "axis": "y", "origin": [7.52393, 2.358, 8.31735]},
			"faces": {
				"north": {"uv": [2, 0, 3, 1], "texture": "#0"},
				"east": {"uv": [2, 0, 3, 1], "texture": "#0"},
				"south": {"uv": [2, 0, 3, 1], "texture": "#0"},
				"west": {"uv": [2, 0, 3, 1], "texture": "#0"},
				"up": {"uv": [2, 0, 3, 1], "texture": "#0"},
				"down": {"uv": [2, 0, 3, 1], "texture": "#0"}
			}
		},
		{
			"name": "XM8 mag_41",
			"from": [7.5, 1.33164, 6.73352],
			"to": [8.5, 1.79244, 6.77192],
			"rotation": {"angle": 0, "axis": "y", "origin": [7.52393, 2.358, 8.31735]},
			"faces": {
				"north": {"uv": [2, 0, 3, 1], "texture": "#0"},
				"east": {"uv": [2, 0, 3, 1], "texture": "#0"},
				"south": {"uv": [2, 0, 3, 1], "texture": "#0"},
				"west": {"uv": [2, 0, 3, 1], "texture": "#0"},
				"up": {"uv": [2, 0, 3, 1], "texture": "#0"},
				"down": {"uv": [2, 0, 3, 1], "texture": "#0"}
			}
		},
		{
			"name": "XM8 mag_42",
			"from": [7.5, 1.60044, 9.15272],
			"to": [8.5, 1.67724, 9.26792],
			"rotation": {"angle": 0, "axis": "y", "origin": [7.52393, 2.358, 8.31735]},
			"faces": {
				"north": {"uv": [2, 0, 3, 1], "texture": "#0"},
				"east": {"uv": [2, 0, 3, 1], "texture": "#0"},
				"south": {"uv": [2, 0, 3, 1], "texture": "#0"},
				"west": {"uv": [2, 0, 3, 1], "texture": "#0"},
				"up": {"uv": [2, 0, 3, 1], "texture": "#0"},
				"down": {"uv": [2, 0, 3, 1], "texture": "#0"}
			}
		},
		{
			"name": "XM8 mag_43",
			"from": [7.5, 1.33164, 6.69512],
			"to": [8.5, 1.63884, 6.73352],
			"rotation": {"angle": 0, "axis": "y", "origin": [7.52393, 2.358, 8.31735]},
			"faces": {
				"north": {"uv": [2, 0, 3, 1], "texture": "#0"},
				"east": {"uv": [2, 0, 3, 1], "texture": "#0"},
				"south": {"uv": [2, 0, 3, 1], "texture": "#0"},
				"west": {"uv": [2, 0, 3, 1], "texture": "#0"},
				"up": {"uv": [2, 0, 3, 1], "texture": "#0"},
				"down": {"uv": [2, 0, 3, 1], "texture": "#0"}
			}
		},
		{
			"name": "XM8 mag_44",
			"from": [7.5, 0.75564, 9.15272],
			"to": [8.5, 1.60044, 9.22952],
			"rotation": {"angle": 0, "axis": "y", "origin": [7.52393, 2.358, 8.31735]},
			"faces": {
				"north": {"uv": [2, 0, 3, 1], "texture": "#0"},
				"east": {"uv": [2, 0, 3, 1], "texture": "#0"},
				"south": {"uv": [2, 0, 3, 1], "texture": "#0"},
				"west": {"uv": [2, 0, 3, 1], "texture": "#0"},
				"up": {"uv": [2, 0, 3, 1], "texture": "#0"},
				"down": {"uv": [2, 0, 3, 1], "texture": "#0"}
			}
		},
		{
			"name": "XM8 mag_45",
			"from": [7.5, 1.33164, 6.65672],
			"to": [8.5, 1.48524, 6.69512],
			"rotation": {"angle": 0, "axis": "y", "origin": [7.52393, 2.358, 8.31735]},
			"faces": {
				"north": {"uv": [2, 0, 3, 1], "texture": "#0"},
				"east": {"uv": [2, 0, 3, 1], "texture": "#0"},
				"south": {"uv": [2, 0, 3, 1], "texture": "#0"},
				"west": {"uv": [2, 0, 3, 1], "texture": "#0"},
				"up": {"uv": [2, 0, 3, 1], "texture": "#0"},
				"down": {"uv": [2, 0, 3, 1], "texture": "#0"}
			}
		},
		{
			"name": "XM8 mag_46",
			"from": [7.5, 1.06284, 7.46312],
			"to": [8.5, 1.10124, 7.57832],
			"rotation": {"angle": 0, "axis": "y", "origin": [7.52393, 2.358, 8.31735]},
			"faces": {
				"north": {"uv": [2, 0, 3, 1], "texture": "#0"},
				"east": {"uv": [2, 0, 3, 1], "texture": "#0"},
				"south": {"uv": [2, 0, 3, 1], "texture": "#0"},
				"west": {"uv": [2, 0, 3, 1], "texture": "#0"},
				"up": {"uv": [2, 0, 3, 1], "texture": "#0"},
				"down": {"uv": [2, 0, 3, 1], "texture": "#0"}
			}
		},
		{
			"name": "XM8 mag_47",
			"from": [7.5, 0.98604, 7.65512],
			"to": [8.5, 1.02444, 7.77032],
			"rotation": {"angle": 0, "axis": "y", "origin": [7.52393, 2.358, 8.31735]},
			"faces": {
				"north": {"uv": [2, 0, 3, 1], "texture": "#0"},
				"east": {"uv": [2, 0, 3, 1], "texture": "#0"},
				"south": {"uv": [2, 0, 3, 1], "texture": "#0"},
				"west": {"uv": [2, 0, 3, 1], "texture": "#0"},
				"up": {"uv": [2, 0, 3, 1], "texture": "#0"},
				"down": {"uv": [2, 0, 3, 1], "texture": "#0"}
			}
		},
		{
			"name": "XM8 mag_48",
			"from": [7.5, 0.90924, 7.92392],
			"to": [8.5, 0.94764, 8.07752],
			"rotation": {"angle": 0, "axis": "y", "origin": [7.52393, 2.358, 8.31735]},
			"faces": {
				"north": {"uv": [2, 0, 3, 1], "texture": "#0"},
				"east": {"uv": [2, 0, 3, 1], "texture": "#0"},
				"south": {"uv": [2, 0, 3, 1], "texture": "#0"},
				"west": {"uv": [2, 0, 3, 1], "texture": "#0"},
				"up": {"uv": [2, 0, 3, 1], "texture": "#0"},
				"down": {"uv": [2, 0, 3, 1], "texture": "#0"}
			}
		},
		{
			"name": "XM8 mag_49",
			"from": [7.5, 0.79404, 9.22952],
			"to": [8.5, 0.94764, 9.26792],
			"rotation": {"angle": 0, "axis": "y", "origin": [7.52393, 2.358, 8.31735]},
			"faces": {
				"north": {"uv": [2, 0, 3, 1], "texture": "#0"},
				"east": {"uv": [2, 0, 3, 1], "texture": "#0"},
				"south": {"uv": [2, 0, 3, 1], "texture": "#0"},
				"west": {"uv": [2, 0, 3, 1], "texture": "#0"},
				"up": {"uv": [2, 0, 3, 1], "texture": "#0"},
				"down": {"uv": [2, 0, 3, 1], "texture": "#0"}
			}
		},
		{
			"name": "XM8 mag_50",
			"from": [7.5, 0.87084, 8.03912],
			"to": [8.5, 0.90924, 8.07752],
			"rotation": {"angle": 0, "axis": "y", "origin": [7.52393, 2.358, 8.31735]},
			"faces": {
				"north": {"uv": [2, 0, 3, 1], "texture": "#0"},
				"east": {"uv": [2, 0, 3, 1], "texture": "#0"},
				"south": {"uv": [2, 0, 3, 1], "texture": "#0"},
				"west": {"uv": [2, 0, 3, 1], "texture": "#0"},
				"up": {"uv": [2, 0, 3, 1], "texture": "#0"},
				"down": {"uv": [2, 0, 3, 1], "texture": "#0"}
			}
		},
		{
			"name": "XM8 mag_51",
			"from": [7.5, 0.83244, 8.15432],
			"to": [8.5, 0.87084, 8.26952],
			"rotation": {"angle": 0, "axis": "y", "origin": [7.52393, 2.358, 8.31735]},
			"faces": {
				"north": {"uv": [2, 0, 3, 1], "texture": "#0"},
				"east": {"uv": [2, 0, 3, 1], "texture": "#0"},
				"south": {"uv": [2, 0, 3, 1], "texture": "#0"},
				"west": {"uv": [2, 0, 3, 1], "texture": "#0"},
				"up": {"uv": [2, 0, 3, 1], "texture": "#0"},
				"down": {"uv": [2, 0, 3, 1], "texture": "#0"}
			}
		},
		{
			"name": "XM8 mag_52",
			"from": [7.5, 0.75564, 8.38472],
			"to": [8.5, 0.79404, 8.42312],
			"rotation": {"angle": 0, "axis": "y", "origin": [7.52393, 2.358, 8.31735]},
			"faces": {
				"north": {"uv": [2, 0, 3, 1], "texture": "#0"},
				"east": {"uv": [2, 0, 3, 1], "texture": "#0"},
				"south": {"uv": [2, 0, 3, 1], "texture": "#0"},
				"west": {"uv": [2, 0, 3, 1], "texture": "#0"},
				"up": {"uv": [2, 0, 3, 1], "texture": "#0"},
				"down": {"uv": [2, 0, 3, 1], "texture": "#0"}
			}
		},
		{
			"name": "XM8 mag_53",
			"from": [7.5, 0.71724, 8.53832],
			"to": [8.5, 0.75564, 8.73032],
			"rotation": {"angle": 0, "axis": "y", "origin": [7.52393, 2.358, 8.31735]},
			"faces": {
				"north": {"uv": [2, 0, 3, 1], "texture": "#0"},
				"east": {"uv": [2, 0, 3, 1], "texture": "#0"},
				"south": {"uv": [2, 0, 3, 1], "texture": "#0"},
				"west": {"uv": [2, 0, 3, 1], "texture": "#0"},
				"up": {"uv": [2, 0, 3, 1], "texture": "#0"},
				"down": {"uv": [2, 0, 3, 1], "texture": "#0"}
			}
		},
		{
			"name": "XM8 mag_54",
			"from": [7.5, 0.71724, 9.15272],
			"to": [8.5, 0.75564, 9.19112],
			"rotation": {"angle": 0, "axis": "y", "origin": [7.52393, 2.358, 8.31735]},
			"faces": {
				"north": {"uv": [2, 0, 3, 1], "texture": "#0"},
				"east": {"uv": [2, 0, 3, 1], "texture": "#0"},
				"south": {"uv": [2, 0, 3, 1], "texture": "#0"},
				"west": {"uv": [2, 0, 3, 1], "texture": "#0"},
				"up": {"uv": [2, 0, 3, 1], "texture": "#0"},
				"down": {"uv": [2, 0, 3, 1], "texture": "#0"}
			}
		},
		{
			"name": "XM8 mag_55",
			"from": [7.5, 0.67884, 8.76872],
			"to": [8.5, 0.71724, 9.15272],
			"rotation": {"angle": 0, "axis": "y", "origin": [7.52393, 2.358, 8.31735]},
			"faces": {
				"north": {"uv": [2, 0, 3, 1], "texture": "#0"},
				"east": {"uv": [2, 0, 3, 1], "texture": "#0"},
				"south": {"uv": [2, 0, 3, 1], "texture": "#0"},
				"west": {"uv": [2, 0, 3, 1], "texture": "#0"},
				"up": {"uv": [2, 0, 3, 1], "texture": "#0"},
				"down": {"uv": [2, 0, 3, 1], "texture": "#0"}
			}
		},
		{
			"name": "XM8 mag_56",
			"from": [7.5, 0.64044, 8.88392],
			"to": [8.5, 0.67884, 9.11432],
			"rotation": {"angle": 0, "axis": "y", "origin": [7.52393, 2.358, 8.31735]},
			"faces": {
				"north": {"uv": [2, 0, 3, 1], "texture": "#0"},
				"east": {"uv": [2, 0, 3, 1], "texture": "#0"},
				"south": {"uv": [2, 0, 3, 1], "texture": "#0"},
				"west": {"uv": [2, 0, 3, 1], "texture": "#0"},
				"up": {"uv": [2, 0, 3, 1], "texture": "#0"},
				"down": {"uv": [2, 0, 3, 1], "texture": "#0"}
			}
		},
		{
			"name": "octagon",
			"from": [7.365, 4.25088, 8.265],
			"to": [8.635, 4.54912, 8.985],
			"rotation": {"angle": 45, "axis": "x", "origin": [7.3, 4.4, 8.625]},
			"faces": {
				"north": {"uv": [2, 0, 3, 1], "texture": "#0"},
				"east": {"uv": [2, 0, 3, 1], "texture": "#0"},
				"south": {"uv": [2, 0, 3, 1], "texture": "#0"},
				"west": {"uv": [2, 0, 3, 1], "texture": "#0"},
				"up": {"uv": [2, 0, 3, 1], "texture": "#0"},
				"down": {"uv": [2, 0, 3, 1], "texture": "#0"}
			}
		},
		{
			"name": "octagon",
			"from": [7.365, 4.25088, 8.265],
			"to": [8.635, 4.54912, 8.985],
			"rotation": {"angle": 0, "axis": "y", "origin": [7.3, 4.4, 8.625]},
			"faces": {
				"north": {"uv": [2, 0, 3, 1], "texture": "#0"},
				"east": {"uv": [2, 0, 3, 1], "texture": "#0"},
				"south": {"uv": [2, 0, 3, 1], "texture": "#0"},
				"west": {"uv": [2, 0, 3, 1], "texture": "#0"},
				"up": {"uv": [2, 0, 3, 1], "texture": "#0"},
				"down": {"uv": [2, 0, 3, 1], "texture": "#0"}
			}
		},
		{
			"name": "octagon",
			"from": [7.365, 4.04, 8.47588],
			"to": [8.635, 4.76, 8.77412],
			"rotation": {"angle": 45, "axis": "x", "origin": [7.3, 4.4, 8.625]},
			"faces": {
				"north": {"uv": [2, 0, 3, 1], "texture": "#0"},
				"east": {"uv": [2, 0, 3, 1], "texture": "#0"},
				"south": {"uv": [2, 0, 3, 1], "texture": "#0"},
				"west": {"uv": [2, 0, 3, 1], "texture": "#0"},
				"up": {"uv": [2, 0, 3, 1], "texture": "#0"},
				"down": {"uv": [2, 0, 3, 1], "texture": "#0"}
			}
		},
		{
			"name": "octagon",
			"from": [7.365, 4.04, 8.47588],
			"to": [8.635, 4.76, 8.77412],
			"rotation": {"angle": 0, "axis": "y", "origin": [7.3, 4.4, 8.625]},
			"faces": {
				"north": {"uv": [2, 0, 3, 1], "texture": "#0"},
				"east": {"uv": [2, 0, 3, 1], "texture": "#0"},
				"south": {"uv": [2, 0, 3, 1], "texture": "#0"},
				"west": {"uv": [2, 0, 3, 1], "texture": "#0"},
				"up": {"uv": [2, 0, 3, 1], "texture": "#0"},
				"down": {"uv": [2, 0, 3, 1], "texture": "#0"}
			}
		},
		{
			"name": "octagon",
			"from": [7.365, 1.70088, 7.715],
			"to": [8.635, 1.99912, 8.435],
			"rotation": {"angle": 45, "axis": "x", "origin": [7.3, 1.85, 8.075]},
			"faces": {
				"north": {"uv": [2, 0, 3, 1], "texture": "#0"},
				"east": {"uv": [2, 0, 3, 1], "texture": "#0"},
				"south": {"uv": [2, 0, 3, 1], "texture": "#0"},
				"west": {"uv": [2, 0, 3, 1], "texture": "#0"},
				"up": {"uv": [2, 0, 3, 1], "texture": "#0"},
				"down": {"uv": [2, 0, 3, 1], "texture": "#0"}
			}
		},
		{
			"name": "octagon",
			"from": [7.365, 1.70088, 7.715],
			"to": [8.635, 1.99912, 8.435],
			"rotation": {"angle": 0, "axis": "y", "origin": [7.3, 1.85, 8.075]},
			"faces": {
				"north": {"uv": [2, 0, 3, 1], "texture": "#0"},
				"east": {"uv": [2, 0, 3, 1], "texture": "#0"},
				"south": {"uv": [2, 0, 3, 1], "texture": "#0"},
				"west": {"uv": [2, 0, 3, 1], "texture": "#0"},
				"up": {"uv": [2, 0, 3, 1], "texture": "#0"},
				"down": {"uv": [2, 0, 3, 1], "texture": "#0"}
			}
		},
		{
			"name": "octagon",
			"from": [7.365, 1.49, 7.92588],
			"to": [8.635, 2.21, 8.22412],
			"rotation": {"angle": 45, "axis": "x", "origin": [7.3, 1.85, 8.075]},
			"faces": {
				"north": {"uv": [2, 0, 3, 1], "texture": "#0"},
				"east": {"uv": [2, 0, 3, 1], "texture": "#0"},
				"south": {"uv": [2, 0, 3, 1], "texture": "#0"},
				"west": {"uv": [2, 0, 3, 1], "texture": "#0"},
				"up": {"uv": [2, 0, 3, 1], "texture": "#0"},
				"down": {"uv": [2, 0, 3, 1], "texture": "#0"}
			}
		},
		{
			"name": "octagon",
			"from": [7.365, 1.49, 7.92588],
			"to": [8.635, 2.21, 8.22412],
			"rotation": {"angle": 0, "axis": "y", "origin": [7.3, 1.85, 8.075]},
			"faces": {
				"north": {"uv": [2, 0, 3, 1], "texture": "#0"},
				"east": {"uv": [2, 0, 3, 1], "texture": "#0"},
				"south": {"uv": [2, 0, 3, 1], "texture": "#0"},
				"west": {"uv": [2, 0, 3, 1], "texture": "#0"},
				"up": {"uv": [2, 0, 3, 1], "texture": "#0"},
				"down": {"uv": [2, 0, 3, 1], "texture": "#0"}
			}
		}
	],
	"groups": [
		{
			"name": "XM8 mag",
			"origin": [8, 8, 8],
			"children": [0, 1, 2, 3, 4, 5, 6, 7, 8, 9, 10, 11, 12, 13, 14, 15, 16, 17, 18, 19, 20, 21, 22, 23, 24, 25, 26, 27, 28, 29, 30, 31, 32, 33, 34, 35, 36, 37, 38, 39, 40, 41, 42, 43, 44, 45, 46, 47, 48, 49, 50, 51, 52, 53, 54, 55, 56,
				{
					"name": "octagon",
					"origin": [8, 8, 8],
					"children": [57, 58, 59, 60]
				},
				{
					"name": "octagon",
					"origin": [8, 8, 8],
					"children": [61, 62, 63, 64]
				}
			]
		}
	]
}