{
	"credit": "Made with Blockbench",
	"textures": {
		"2": "ava:item/gun_effects/fire",
		"3": "ava:item/gun_effects/fire2",
		"particle": "ava:item/gun_textures/black3"
	},
	"elements": [
		{
			"name": "cube2",
			"from": [7.575, 7.95, -11.0002],
			"to": [8.425, 8.8, -8.0002],
			"rotation": {"angle": 0, "axis": "y", "origin": [15, 15, -2]},
			"faces": {
				"north": {"uv": [0, 0, 16, 16], "texture": "#3"},
				"east": {"uv": [0, 0, 16, 16], "texture": "#3"},
				"south": {"uv": [0, 0, 16, 16], "texture": "#3"},
				"west": {"uv": [0, 0, 16, 16], "texture": "#3"},
				"up": {"uv": [0, 0, 16, 16], "texture": "#3"},
				"down": {"uv": [0, 0, 16, 16], "texture": "#3"}
			}
		},
		{
			"from": [6.25, 6.25, -8.001],
			"to": [9.75, 10.25, -8],
			"rotation": {"angle": 0, "axis": "y", "origin": [15, 13, 0]},
			"faces": {
				"north": {"uv": [0, 0, 16, 16], "texture": "#2"},
				"east": {"uv": [0, 0, 16, 16], "texture": "#2"},
				"south": {"uv": [0, 0, 16, 16], "texture": "#2"},
				"west": {"uv": [0, 0, 16, 16], "texture": "#2"},
				"up": {"uv": [0, 0, 16, 16], "texture": "#2"},
				"down": {"uv": [0, 0, 16, 16], "texture": "#2"}
			}
		}
	],
	"display": {
		"thirdperson_righthand": {
			"rotation": [70, 0, 0],
			"translation": [-2, 3.5, 4.25],
			"scale": [0.85, 0.85, 0.85]
		},
		"thirdperson_lefthand": {
			"rotation": [70, 0, 0],
			"translation": [-2, 3.5, 4.25],
			"scale": [0.85, 0.85, 0.85]
		},
		"firstperson_righthand": {
			"rotation": [6, 0, 0],
			"translation": [-1.5, 2.5, 1.25],
			"scale": [1, 1, 0.6]
		},
		"firstperson_lefthand": {
			"rotation": [11, 0, 0],
			"translation": [-1.5, 2.5, 0.5],
			"scale": [1, 1, 0.56]
		},
		"ground": {
			"rotation": [0, 0, 90],
			"scale": [0.55, 0.55, 0.55]
		},
		"gui": {
			"rotation": [0, -90, 0],
			"translation": [0.5, 0, 0],
			"scale": [0.45, 0.45, 0.45]
		},
		"fixed": {
			"rotation": [0, 90, 0],
			"translation": [0, 0, -1.25],
			"scale": [1.2, 1.2, 1.2]
		}
	}
}