{
	"credit": "Made with Blockbench",
	"textures": {
		"0": "ava:item/gun_textures/palette_dreamcatcher",
		"1": "ava:item/gun_textures/palette_gold",
		"particle": "ava:item/gun_textures/palette_dreamcatcher"
	},
	"elements": [
		{
			"name": "hexadecagon",
			"from": [7.92, 6.97352, 8.95],
			"to": [8.03, 7.52648, 10.2],
			"rotation": {"angle": -45, "axis": "z", "origin": [7.975, 7.25, 9.35]},
			"faces": {
				"north": {"uv": [2.03125, 0, 2.53125, 0.875], "texture": "#0"},
				"east": {"uv": [2.03125, 0, 2.53125, 0.875], "texture": "#0"},
				"south": {"uv": [2.03125, 0, 2.53125, 0.875], "texture": "#0"},
				"west": {"uv": [2.03125, 0, 2.53125, 0.875], "texture": "#0"},
				"up": {"uv": [2.03125, 0, 2.53125, 0.875], "texture": "#0"},
				"down": {"uv": [2.03125, 0, 2.53125, 0.875], "texture": "#0"}
			}
		},
		{
			"name": "hexadecagon",
			"from": [7.92, 6.97352, 8.95],
			"to": [8.03, 7.52648, 10.2],
			"rotation": {"angle": -22.5, "axis": "z", "origin": [7.975, 7.25, 9.35]},
			"faces": {
				"north": {"uv": [2.03125, 0, 2.53125, 0.875], "texture": "#0"},
				"east": {"uv": [2.03125, 0, 2.53125, 0.875], "texture": "#0"},
				"south": {"uv": [2.03125, 0, 2.53125, 0.875], "texture": "#0"},
				"west": {"uv": [2.03125, 0, 2.53125, 0.875], "texture": "#0"},
				"up": {"uv": [2.03125, 0, 2.53125, 0.875], "texture": "#0"},
				"down": {"uv": [2.03125, 0, 2.53125, 0.875], "texture": "#0"}
			}
		},
		{
			"name": "hexadecagon",
			"from": [7.92, 6.97352, 8.95],
			"to": [8.03, 7.52648, 10.2],
			"rotation": {"angle": 0, "axis": "z", "origin": [7.975, 7.25, 9.35]},
			"faces": {
				"north": {"uv": [2.03125, 0, 2.53125, 0.875], "texture": "#0"},
				"east": {"uv": [2.03125, 0, 2.53125, 0.875], "texture": "#0"},
				"south": {"uv": [2.03125, 0, 2.53125, 0.875], "texture": "#0"},
				"west": {"uv": [2.03125, 0, 2.53125, 0.875], "texture": "#0"},
				"up": {"uv": [2.03125, 0, 2.53125, 0.875], "texture": "#0"},
				"down": {"uv": [2.03125, 0, 2.53125, 0.875], "texture": "#0"}
			}
		},
		{
			"name": "hexadecagon",
			"from": [7.92, 6.97352, 8.95],
			"to": [8.03, 7.52648, 10.2],
			"rotation": {"angle": 22.5, "axis": "z", "origin": [7.975, 7.25, 9.35]},
			"faces": {
				"north": {"uv": [2.03125, 0, 2.53125, 0.875], "texture": "#0"},
				"east": {"uv": [2.03125, 0, 2.53125, 0.875], "texture": "#0"},
				"south": {"uv": [2.03125, 0, 2.53125, 0.875], "texture": "#0"},
				"west": {"uv": [2.03125, 0, 2.53125, 0.875], "texture": "#0"},
				"up": {"uv": [2.03125, 0, 2.53125, 0.875], "texture": "#0"},
				"down": {"uv": [2.03125, 0, 2.53125, 0.875], "texture": "#0"}
			}
		},
		{
			"name": "hexadecagon",
			"from": [7.92, 6.97352, 8.95],
			"to": [8.03, 7.52648, 10.2],
			"rotation": {"angle": 45, "axis": "z", "origin": [7.975, 7.25, 9.35]},
			"faces": {
				"north": {"uv": [2.03125, 0, 2.53125, 0.875], "texture": "#0"},
				"east": {"uv": [2.03125, 0, 2.53125, 0.875], "texture": "#0"},
				"south": {"uv": [2.03125, 0, 2.53125, 0.875], "texture": "#0"},
				"west": {"uv": [2.03125, 0, 2.53125, 0.875], "texture": "#0"},
				"up": {"uv": [2.03125, 0, 2.53125, 0.875], "texture": "#0"},
				"down": {"uv": [2.03125, 0, 2.53125, 0.875], "texture": "#0"}
			}
		},
		{
			"name": "hexadecagon",
			"from": [7.69852, 7.195, 8.95],
			"to": [8.25148, 7.305, 10.2],
			"rotation": {"angle": -22.5, "axis": "z", "origin": [7.975, 7.25, 9.35]},
			"faces": {
				"north": {"uv": [2.03125, 0, 2.53125, 0.875], "texture": "#0"},
				"east": {"uv": [2.03125, 0, 2.53125, 0.875], "texture": "#0"},
				"south": {"uv": [2.03125, 0, 2.53125, 0.875], "texture": "#0"},
				"west": {"uv": [2.03125, 0, 2.53125, 0.875], "texture": "#0"},
				"up": {"uv": [2.03125, 0, 2.53125, 0.875], "texture": "#0"},
				"down": {"uv": [2.03125, 0, 2.53125, 0.875], "texture": "#0"}
			}
		},
		{
			"name": "hexadecagon",
			"from": [7.69852, 7.195, 8.95],
			"to": [8.25148, 7.305, 10.2],
			"rotation": {"angle": 0, "axis": "z", "origin": [7.975, 7.25, 9.35]},
			"faces": {
				"north": {"uv": [2.03125, 0, 2.53125, 0.875], "texture": "#0"},
				"east": {"uv": [2.03125, 0, 2.53125, 0.875], "texture": "#0"},
				"south": {"uv": [2.03125, 0, 2.53125, 0.875], "texture": "#0"},
				"west": {"uv": [2.03125, 0, 2.53125, 0.875], "texture": "#0"},
				"up": {"uv": [2.03125, 0, 2.53125, 0.875], "texture": "#0"},
				"down": {"uv": [2.03125, 0, 2.53125, 0.875], "texture": "#0"}
			}
		},
		{
			"name": "hexadecagon",
			"from": [7.69852, 7.195, 8.95],
			"to": [8.25148, 7.305, 10.2],
			"rotation": {"angle": 22.5, "axis": "z", "origin": [7.975, 7.25, 9.35]},
			"faces": {
				"north": {"uv": [2.03125, 0, 2.53125, 0.875], "texture": "#0"},
				"east": {"uv": [2.03125, 0, 2.53125, 0.875], "texture": "#0"},
				"south": {"uv": [2.03125, 0, 2.53125, 0.875], "texture": "#0"},
				"west": {"uv": [2.03125, 0, 2.53125, 0.875], "texture": "#0"},
				"up": {"uv": [2.03125, 0, 2.53125, 0.875], "texture": "#0"},
				"down": {"uv": [2.03125, 0, 2.53125, 0.875], "texture": "#0"}
			}
		},
		{
			"name": "hexadecagon",
			"from": [7.92, 6.97352, 8.45],
			"to": [8.03, 7.52648, 8.95],
			"rotation": {"angle": -45, "axis": "z", "origin": [7.975, 7.25, 8.85]},
			"faces": {
				"north": {"uv": [0, 0, 2, 2], "texture": "#1"},
				"east": {"uv": [0, 0, 2, 2], "texture": "#1"},
				"south": {"uv": [0, 0, 2, 2], "texture": "#1"},
				"west": {"uv": [0, 0, 2, 2], "texture": "#1"},
				"up": {"uv": [0, 0, 2, 2], "texture": "#1"},
				"down": {"uv": [0, 0, 2, 2], "texture": "#1"}
			}
		},
		{
			"name": "hexadecagon",
			"from": [7.92, 6.97352, 8.45],
			"to": [8.03, 7.52648, 8.95],
			"rotation": {"angle": -22.5, "axis": "z", "origin": [7.975, 7.25, 8.85]},
			"faces": {
				"north": {"uv": [0, 0, 2, 2], "texture": "#1"},
				"east": {"uv": [0, 0, 2, 2], "texture": "#1"},
				"south": {"uv": [0, 0, 2, 2], "texture": "#1"},
				"west": {"uv": [0, 0, 2, 2], "texture": "#1"},
				"up": {"uv": [0, 0, 2, 2], "texture": "#1"},
				"down": {"uv": [0, 0, 2, 2], "texture": "#1"}
			}
		},
		{
			"name": "hexadecagon",
			"from": [7.92, 6.97352, 8.45],
			"to": [8.03, 7.52648, 8.95],
			"rotation": {"angle": 0, "axis": "z", "origin": [7.975, 7.25, 8.85]},
			"faces": {
				"north": {"uv": [0, 0, 2, 2], "texture": "#1"},
				"east": {"uv": [0, 0, 2, 2], "texture": "#1"},
				"south": {"uv": [0, 0, 2, 2], "texture": "#1"},
				"west": {"uv": [0, 0, 2, 2], "texture": "#1"},
				"up": {"uv": [0, 0, 2, 2], "texture": "#1"},
				"down": {"uv": [0, 0, 2, 2], "texture": "#1"}
			}
		},
		{
			"name": "hexadecagon",
			"from": [7.92, 6.97352, 8.45],
			"to": [8.03, 7.52648, 8.95],
			"rotation": {"angle": 22.5, "axis": "z", "origin": [7.975, 7.25, 8.85]},
			"faces": {
				"north": {"uv": [0, 0, 2, 2], "texture": "#1"},
				"east": {"uv": [0, 0, 2, 2], "texture": "#1"},
				"south": {"uv": [0, 0, 2, 2], "texture": "#1"},
				"west": {"uv": [0, 0, 2, 2], "texture": "#1"},
				"up": {"uv": [0, 0, 2, 2], "texture": "#1"},
				"down": {"uv": [0, 0, 2, 2], "texture": "#1"}
			}
		},
		{
			"name": "hexadecagon",
			"from": [7.92, 6.97352, 8.45],
			"to": [8.03, 7.52648, 8.95],
			"rotation": {"angle": 45, "axis": "z", "origin": [7.975, 7.25, 8.85]},
			"faces": {
				"north": {"uv": [0, 0, 2, 2], "texture": "#1"},
				"east": {"uv": [0, 0, 2, 2], "texture": "#1"},
				"south": {"uv": [0, 0, 2, 2], "texture": "#1"},
				"west": {"uv": [0, 0, 2, 2], "texture": "#1"},
				"up": {"uv": [0, 0, 2, 2], "texture": "#1"},
				"down": {"uv": [0, 0, 2, 2], "texture": "#1"}
			}
		},
		{
			"name": "hexadecagon",
			"from": [7.69852, 7.195, 8.45],
			"to": [8.25148, 7.305, 8.95],
			"rotation": {"angle": -22.5, "axis": "z", "origin": [7.975, 7.25, 8.85]},
			"faces": {
				"north": {"uv": [0, 0, 2, 2], "texture": "#1"},
				"east": {"uv": [0, 0, 2, 2], "texture": "#1"},
				"south": {"uv": [0, 0, 2, 2], "texture": "#1"},
				"west": {"uv": [0, 0, 2, 2], "texture": "#1"},
				"up": {"uv": [0, 0, 2, 2], "texture": "#1"},
				"down": {"uv": [0, 0, 2, 2], "texture": "#1"}
			}
		},
		{
			"name": "hexadecagon",
			"from": [7.69852, 7.195, 8.45],
			"to": [8.25148, 7.305, 8.95],
			"rotation": {"angle": 0, "axis": "z", "origin": [7.975, 7.25, 8.85]},
			"faces": {
				"north": {"uv": [0, 0, 2, 2], "texture": "#1"},
				"east": {"uv": [0, 0, 2, 2], "texture": "#1"},
				"south": {"uv": [0, 0, 2, 2], "texture": "#1"},
				"west": {"uv": [0, 0, 2, 2], "texture": "#1"},
				"up": {"uv": [0, 0, 2, 2], "texture": "#1"},
				"down": {"uv": [0, 0, 2, 2], "texture": "#1"}
			}
		},
		{
			"name": "hexadecagon",
			"from": [7.69852, 7.195, 8.45],
			"to": [8.25148, 7.305, 8.95],
			"rotation": {"angle": 22.5, "axis": "z", "origin": [7.975, 7.25, 8.85]},
			"faces": {
				"north": {"uv": [0, 0, 2, 2], "texture": "#1"},
				"east": {"uv": [0, 0, 2, 2], "texture": "#1"},
				"south": {"uv": [0, 0, 2, 2], "texture": "#1"},
				"west": {"uv": [0, 0, 2, 2], "texture": "#1"},
				"up": {"uv": [0, 0, 2, 2], "texture": "#1"},
				"down": {"uv": [0, 0, 2, 2], "texture": "#1"}
			}
		}
	],
	"groups": [
		{
			"name": "bullet",
			"origin": [8, 8, 8],
			"children": [0, 1, 2, 3, 4, 5, 6, 7]
		},
		{
			"name": "bullet",
			"origin": [8, 8, 8],
			"children": [8, 9, 10, 11, 12, 13, 14, 15]
		}
	]
}