{
	"credit": "Made with Blockbench",
	"textures": {
		"0": "ava:item/gun_textures/black3",
		"1": "ava:item/gun_textures/silver1",
		"3": "ava:item/grenades/m18_toxic",
		"particle": "ava:item/gun_textures/black3"
	},
	"elements": [
		{
			"from": [6.5, 5, 6.5],
			"to": [9.5, 11, 9.5],
			"rotation": {"angle": 0, "axis": "y", "origin": [14, 15, 14]},
			"faces": {
				"north": {"uv": [4, 0, 7, 6], "texture": "#3"},
				"east": {"uv": [0, 0, 3, 6], "texture": "#3"},
				"south": {"uv": [0, 0, 3, 6], "texture": "#3"},
				"west": {"uv": [5, 0, 8, 6], "texture": "#3"},
				"up": {"uv": [5, 2, 7, 6], "texture": "#3"},
				"down": {"uv": [5, 2, 7, 6], "texture": "#3"}
			}
		},
		{
			"name": "cube2",
			"from": [7, 11, 7],
			"to": [9, 12, 9],
			"rotation": {"angle": 0, "axis": "y", "origin": [15, 19, 15]},
			"faces": {
				"north": {"uv": [0, 0, 16, 16], "texture": "#0"},
				"east": {"uv": [0, 0, 16, 16], "texture": "#0"},
				"south": {"uv": [0, 0, 16, 16], "texture": "#0"},
				"west": {"uv": [0, 0, 16, 16], "texture": "#0"},
				"up": {"uv": [0, 0, 16, 16], "texture": "#0"},
				"down": {"uv": [0, 0, 16, 16], "texture": "#0"}
			}
		},
		{
			"name": "cube3",
			"from": [7, 12, 7],
			"to": [9, 13, 10],
			"rotation": {"angle": 0, "axis": "y", "origin": [15, 20, 15]},
			"faces": {
				"north": {"uv": [0, 0, 16, 16], "texture": "#1"},
				"east": {"uv": [0, 0, 16, 16], "texture": "#1"},
				"south": {"uv": [0, 0, 16, 16], "texture": "#1"},
				"west": {"uv": [0, 0, 16, 16], "texture": "#1"},
				"up": {"uv": [0, 0, 16, 16], "texture": "#1"},
				"down": {"uv": [0, 0, 16, 16], "texture": "#1"}
			}
		},
		{
			"name": "cube4",
			"from": [7, 6, 9.5],
			"to": [9, 12, 10.5],
			"rotation": {"angle": 0, "axis": "y", "origin": [15, 15, 18]},
			"faces": {
				"north": {"uv": [0, 0, 16, 16], "texture": "#1"},
				"east": {"uv": [0, 0, 16, 16], "texture": "#1"},
				"south": {"uv": [0, 0, 16, 16], "texture": "#1"},
				"west": {"uv": [0, 0, 16, 16], "texture": "#1"},
				"up": {"uv": [0, 0, 16, 16], "texture": "#1"},
				"down": {"uv": [0, 0, 16, 16], "texture": "#1"}
			}
		}
	],
	"overrides": [
		{
			"predicate": {
				"ava:hold": 1
			},
			"model": "ava:item/grenades/m18_toxic_hold_1"
		}
	],
	"display": {
		"firstperson_righthand": {
			"rotation": [20, 5, -20],
			"translation": [0.25, 2.25, 1.5],
			"scale": [0.75, 1, 0.75]
		},
		"firstperson_lefthand": {
			"rotation": [20, 5, -20],
			"translation": [0.25, 2.25, 1.5],
			"scale": [0.75, 1, 0.75]
		},
		"ground": {
			"translation": [0, -0.75, 0],
			"scale": [0.75, 0.75, 0.75]
		},
		"gui": {
			"rotation": [38, -66, 0],
			"translation": [0.25, 0, 0]
		},
		"fixed": {
			"rotation": [0, 90, 0],
			"translation": [0, -1, -1.25],
			"scale": [1.25, 1.25, 1.25]
		}
	}
}